R语言实战医学统计 - 32 多分类数据的ROC曲线
…
多分类的ROC曲线有多种方法可以实现,比如宏平均、微平均等。多分类的其他指标，比如准确率、敏感性、特异性等，计算方法都是类似的。

在R中能实现多分类ROC曲线的R包不是很多，今天给大家介绍两个。一个是yardstick，这是tidymodels的核心包之一，目前还在维护更新中，非常推荐，另一个是multiROC。

32.1 yardstick

yardstick作为tidymodels的核心包之一，其使用语法和tidy系列完全一样，并且支持所有的tidy特性，学习成本非常低。而且背靠Rstudio这颗大树，稳定性和可靠性也有保障。

接下来我们会演示衡量具有3个或更多类别的分类数据的方法。下面使用的示例数据包含了4个类别：

library(tidymodels)

data(hpc_cv)
tibble(hpc_cv)
## # A tibble: 3,467 × 7
##    obs   pred     VF      F       M          L Resample
##    <fct> <fct> <dbl>  <dbl>   <dbl>      <dbl> <chr>   
##  1 VF    VF    0.914 0.0779 0.00848 0.0000199  Fold01  
##  2 VF    VF    0.938 0.0571 0.00482 0.0000101  Fold01  
##  3 VF    VF    0.947 0.0495 0.00316 0.00000500 Fold01  
##  4 VF    VF    0.929 0.0653 0.00579 0.0000156  Fold01  
##  5 VF    VF    0.942 0.0543 0.00381 0.00000729 Fold01  
##  6 VF    VF    0.951 0.0462 0.00272 0.00000384 Fold01  
##  7 VF    VF    0.914 0.0782 0.00767 0.0000354  Fold01  
##  8 VF    VF    0.918 0.0744 0.00726 0.0000157  Fold01  
##  9 VF    VF    0.843 0.128  0.0296  0.000192   Fold01  
## 10 VF    VF    0.920 0.0728 0.00703 0.0000147  Fold01  
## # ℹ 3,457 more rows
…
