19 多变量数据的统计描述和统计推断 – R语言实战医学统计
…
F值为41.308，拒绝零假设，可认为服药后体重比服药前降低了。

然后是分析服药后1~4周的体重变化趋势。先把数据变成长数据。

library(tidyr)
library(dplyr)

data14_7_long <- data14_7 %>% 
  pivot_longer(cols = 2:6, names_to = "times",values_to = "weights")
data14_7_long
## # A tibble: 50 × 3
##       n0 times weights
##    <dbl> <chr>   <dbl>
##  1     1 t1       132.
##  2     1 t2       128.
##  3     1 t3       127.
##  4     1 t4       125.
##  5     1 t5       125.
##  6     2 t1       155.
##  7     2 t2       153.
##  8     2 t3       151.
##  9     2 t4       148.
## 10     2 t5       146.
## # ℹ 40 more rows
…
