9 统计绘图 – R语言实战医学统计
…
9.10 茎叶图

例10-13。茎叶图。

library(haven)
data10_13 <- haven::read_sav("datasets/例10-13.sav",encoding = "GBK")
data10_13 <- as_factor(data10_13)
data10_13
## # A tibble: 138 × 1
##      rbc
##    <dbl>
##  1  3.96
##  2  3.77
##  3  4.63
##  4  4.56
##  5  4.66
##  6  4.61
##  7  4.98
##  8  5.28
##  9  5.11
## 10  4.92
## # ℹ 128 more rows
…
9.11 误差条图

例10-14。误差条图。

library(haven)
data10_14 <- haven::read_sav("datasets/例10-14.sav",encoding = "GBK")
data10_14 <- as_factor(data10_14)
data10_14
## # A tibble: 120 × 2
##    group     dmdz
##    <fct>    <dbl>
##  1 安慰剂组  3.53
##  2 安慰剂组  4.59
##  3 安慰剂组  4.34
##  4 安慰剂组  2.66
##  5 安慰剂组  3.59
##  6 安慰剂组  3.13
##  7 安慰剂组  2.64
##  8 安慰剂组  2.56
##  9 安慰剂组  3.5 
## 10 安慰剂组  3.25
## # ℹ 110 more rows
…
